Sequence(s)	CRISPR array(s)	Nb CRISPRs	Evidence-levels	Cas cluster(s)	Nb Cas	Cas Types/Subtypes
MPHR01000001		0	Nb_arrays_evidence-level_1=0,Nb_arrays_evidence-level_2=0,Nb_arrays_evidence-level_3=0,Nb_arrays_evidence-level_4=0		0
MPHR01000002		0	Nb_arrays_evidence-level_1=0,Nb_arrays_evidence-level_2=0,Nb_arrays_evidence-level_3=0,Nb_arrays_evidence-level_4=0		0
MPHR01000003		0	Nb_arrays_evidence-level_1=0,Nb_arrays_evidence-level_2=0,Nb_arrays_evidence-level_3=0,Nb_arrays_evidence-level_4=0		0
MPHR01000004		0	Nb_arrays_evidence-level_1=0,Nb_arrays_evidence-level_2=0,Nb_arrays_evidence-level_3=0,Nb_arrays_evidence-level_4=0		0
MPHR01000005		0	Nb_arrays_evidence-level_1=0,Nb_arrays_evidence-level_2=0,Nb_arrays_evidence-level_3=0,Nb_arrays_evidence-level_4=0		0
MPHR01000006		0	Nb_arrays_evidence-level_1=0,Nb_arrays_evidence-level_2=0,Nb_arrays_evidence-level_3=0,Nb_arrays_evidence-level_4=0		0
MPHR01000007		0	Nb_arrays_evidence-level_1=0,Nb_arrays_evidence-level_2=0,Nb_arrays_evidence-level_3=0,Nb_arrays_evidence-level_4=0		0
MPHR01000008		0	Nb_arrays_evidence-level_1=0,Nb_arrays_evidence-level_2=0,Nb_arrays_evidence-level_3=0,Nb_arrays_evidence-level_4=0		0
MPHR01000009		0	Nb_arrays_evidence-level_1=0,Nb_arrays_evidence-level_2=0,Nb_arrays_evidence-level_3=0,Nb_arrays_evidence-level_4=0		0
MPHR01000010		0	Nb_arrays_evidence-level_1=0,Nb_arrays_evidence-level_2=0,Nb_arrays_evidence-level_3=0,Nb_arrays_evidence-level_4=0		0
MPHR01000011		0	Nb_arrays_evidence-level_1=0,Nb_arrays_evidence-level_2=0,Nb_arrays_evidence-level_3=0,Nb_arrays_evidence-level_4=0		0
MPHR01000012		0	Nb_arrays_evidence-level_1=0,Nb_arrays_evidence-level_2=0,Nb_arrays_evidence-level_3=0,Nb_arrays_evidence-level_4=0		0
MPHR01000013		0	Nb_arrays_evidence-level_1=0,Nb_arrays_evidence-level_2=0,Nb_arrays_evidence-level_3=0,Nb_arrays_evidence-level_4=0		0
MPHR01000014		0	Nb_arrays_evidence-level_1=0,Nb_arrays_evidence-level_2=0,Nb_arrays_evidence-level_3=0,Nb_arrays_evidence-level_4=0		0
MPHR01000015		0	Nb_arrays_evidence-level_1=0,Nb_arrays_evidence-level_2=0,Nb_arrays_evidence-level_3=0,Nb_arrays_evidence-level_4=0		0
MPHR01000016		0	Nb_arrays_evidence-level_1=0,Nb_arrays_evidence-level_2=0,Nb_arrays_evidence-level_3=0,Nb_arrays_evidence-level_4=0		0
MPHR01000017		0	Nb_arrays_evidence-level_1=0,Nb_arrays_evidence-level_2=0,Nb_arrays_evidence-level_3=0,Nb_arrays_evidence-level_4=0		0
MPHR01000018		0	Nb_arrays_evidence-level_1=0,Nb_arrays_evidence-level_2=0,Nb_arrays_evidence-level_3=0,Nb_arrays_evidence-level_4=0		0
MPHR01000019		0	Nb_arrays_evidence-level_1=0,Nb_arrays_evidence-level_2=0,Nb_arrays_evidence-level_3=0,Nb_arrays_evidence-level_4=0		0
MPHR01000020		0	Nb_arrays_evidence-level_1=0,Nb_arrays_evidence-level_2=0,Nb_arrays_evidence-level_3=0,Nb_arrays_evidence-level_4=0		0
MPHR01000021		0	Nb_arrays_evidence-level_1=0,Nb_arrays_evidence-level_2=0,Nb_arrays_evidence-level_3=0,Nb_arrays_evidence-level_4=0		0
MPHR01000022		0	Nb_arrays_evidence-level_1=0,Nb_arrays_evidence-level_2=0,Nb_arrays_evidence-level_3=0,Nb_arrays_evidence-level_4=0		0
MPHR01000023		0	Nb_arrays_evidence-level_1=0,Nb_arrays_evidence-level_2=0,Nb_arrays_evidence-level_3=0,Nb_arrays_evidence-level_4=0		0
MPHR01000024		0	Nb_arrays_evidence-level_1=0,Nb_arrays_evidence-level_2=0,Nb_arrays_evidence-level_3=0,Nb_arrays_evidence-level_4=0		0
MPHR01000025		0	Nb_arrays_evidence-level_1=0,Nb_arrays_evidence-level_2=0,Nb_arrays_evidence-level_3=0,Nb_arrays_evidence-level_4=0		0
MPHR01000026		0	Nb_arrays_evidence-level_1=0,Nb_arrays_evidence-level_2=0,Nb_arrays_evidence-level_3=0,Nb_arrays_evidence-level_4=0		0
MPHR01000027		0	Nb_arrays_evidence-level_1=0,Nb_arrays_evidence-level_2=0,Nb_arrays_evidence-level_3=0,Nb_arrays_evidence-level_4=0		0
MPHR01000028		0	Nb_arrays_evidence-level_1=0,Nb_arrays_evidence-level_2=0,Nb_arrays_evidence-level_3=0,Nb_arrays_evidence-level_4=0		0
MPHR01000029		0	Nb_arrays_evidence-level_1=0,Nb_arrays_evidence-level_2=0,Nb_arrays_evidence-level_3=0,Nb_arrays_evidence-level_4=0		0
MPHR01000030		0	Nb_arrays_evidence-level_1=0,Nb_arrays_evidence-level_2=0,Nb_arrays_evidence-level_3=0,Nb_arrays_evidence-level_4=0		0
MPHR01000031		0	Nb_arrays_evidence-level_1=0,Nb_arrays_evidence-level_2=0,Nb_arrays_evidence-level_3=0,Nb_arrays_evidence-level_4=0		0
MPHR01000032		0	Nb_arrays_evidence-level_1=0,Nb_arrays_evidence-level_2=0,Nb_arrays_evidence-level_3=0,Nb_arrays_evidence-level_4=0		0
MPHR01000033		0	Nb_arrays_evidence-level_1=0,Nb_arrays_evidence-level_2=0,Nb_arrays_evidence-level_3=0,Nb_arrays_evidence-level_4=0		0
MPHR01000034		0	Nb_arrays_evidence-level_1=0,Nb_arrays_evidence-level_2=0,Nb_arrays_evidence-level_3=0,Nb_arrays_evidence-level_4=0		0
MPHR01000035		0	Nb_arrays_evidence-level_1=0,Nb_arrays_evidence-level_2=0,Nb_arrays_evidence-level_3=0,Nb_arrays_evidence-level_4=0		0
MPHR01000036		0	Nb_arrays_evidence-level_1=0,Nb_arrays_evidence-level_2=0,Nb_arrays_evidence-level_3=0,Nb_arrays_evidence-level_4=0		0
MPHR01000037		0	Nb_arrays_evidence-level_1=0,Nb_arrays_evidence-level_2=0,Nb_arrays_evidence-level_3=0,Nb_arrays_evidence-level_4=0		0
MPHR01000038		0	Nb_arrays_evidence-level_1=0,Nb_arrays_evidence-level_2=0,Nb_arrays_evidence-level_3=0,Nb_arrays_evidence-level_4=0		0
MPHR01000039		0	Nb_arrays_evidence-level_1=0,Nb_arrays_evidence-level_2=0,Nb_arrays_evidence-level_3=0,Nb_arrays_evidence-level_4=0		0
MPHR01000040		0	Nb_arrays_evidence-level_1=0,Nb_arrays_evidence-level_2=0,Nb_arrays_evidence-level_3=0,Nb_arrays_evidence-level_4=0		0
MPHR01000041		0	Nb_arrays_evidence-level_1=0,Nb_arrays_evidence-level_2=0,Nb_arrays_evidence-level_3=0,Nb_arrays_evidence-level_4=0		0
MPHR01000042		0	Nb_arrays_evidence-level_1=0,Nb_arrays_evidence-level_2=0,Nb_arrays_evidence-level_3=0,Nb_arrays_evidence-level_4=0		0
MPHR01000043		0	Nb_arrays_evidence-level_1=0,Nb_arrays_evidence-level_2=0,Nb_arrays_evidence-level_3=0,Nb_arrays_evidence-level_4=0		0
MPHR01000044		0	Nb_arrays_evidence-level_1=0,Nb_arrays_evidence-level_2=0,Nb_arrays_evidence-level_3=0,Nb_arrays_evidence-level_4=0		0
MPHR01000045		0	Nb_arrays_evidence-level_1=0,Nb_arrays_evidence-level_2=0,Nb_arrays_evidence-level_3=0,Nb_arrays_evidence-level_4=0		0
MPHR01000046		0	Nb_arrays_evidence-level_1=0,Nb_arrays_evidence-level_2=0,Nb_arrays_evidence-level_3=0,Nb_arrays_evidence-level_4=0		0
MPHR01000047		0	Nb_arrays_evidence-level_1=0,Nb_arrays_evidence-level_2=0,Nb_arrays_evidence-level_3=0,Nb_arrays_evidence-level_4=0		0
MPHR01000048		0	Nb_arrays_evidence-level_1=0,Nb_arrays_evidence-level_2=0,Nb_arrays_evidence-level_3=0,Nb_arrays_evidence-level_4=0		0
MPHR01000049	MPHR01000049_1[12314;12416] (evidence-level=1),	1	Nb_arrays_evidence-level_1=1,Nb_arrays_evidence-level_2=0,Nb_arrays_evidence-level_3=0,Nb_arrays_evidence-level_4=0		0
MPHR01000050		0	Nb_arrays_evidence-level_1=0,Nb_arrays_evidence-level_2=0,Nb_arrays_evidence-level_3=0,Nb_arrays_evidence-level_4=0		0
MPHR01000051		0	Nb_arrays_evidence-level_1=0,Nb_arrays_evidence-level_2=0,Nb_arrays_evidence-level_3=0,Nb_arrays_evidence-level_4=0		0
MPHR01000052		0	Nb_arrays_evidence-level_1=0,Nb_arrays_evidence-level_2=0,Nb_arrays_evidence-level_3=0,Nb_arrays_evidence-level_4=0		0
MPHR01000053		0	Nb_arrays_evidence-level_1=0,Nb_arrays_evidence-level_2=0,Nb_arrays_evidence-level_3=0,Nb_arrays_evidence-level_4=0		0
MPHR01000054		0	Nb_arrays_evidence-level_1=0,Nb_arrays_evidence-level_2=0,Nb_arrays_evidence-level_3=0,Nb_arrays_evidence-level_4=0		0
MPHR01000055		0	Nb_arrays_evidence-level_1=0,Nb_arrays_evidence-level_2=0,Nb_arrays_evidence-level_3=0,Nb_arrays_evidence-level_4=0		0
MPHR01000056		0	Nb_arrays_evidence-level_1=0,Nb_arrays_evidence-level_2=0,Nb_arrays_evidence-level_3=0,Nb_arrays_evidence-level_4=0		0
MPHR01000057		0	Nb_arrays_evidence-level_1=0,Nb_arrays_evidence-level_2=0,Nb_arrays_evidence-level_3=0,Nb_arrays_evidence-level_4=0		0
MPHR01000058		0	Nb_arrays_evidence-level_1=0,Nb_arrays_evidence-level_2=0,Nb_arrays_evidence-level_3=0,Nb_arrays_evidence-level_4=0		0
MPHR01000059		0	Nb_arrays_evidence-level_1=0,Nb_arrays_evidence-level_2=0,Nb_arrays_evidence-level_3=0,Nb_arrays_evidence-level_4=0		0
MPHR01000060		0	Nb_arrays_evidence-level_1=0,Nb_arrays_evidence-level_2=0,Nb_arrays_evidence-level_3=0,Nb_arrays_evidence-level_4=0		0
MPHR01000061		0	Nb_arrays_evidence-level_1=0,Nb_arrays_evidence-level_2=0,Nb_arrays_evidence-level_3=0,Nb_arrays_evidence-level_4=0		0
MPHR01000062	MPHR01000062_1[1;432] (evidence-level=3),	1	Nb_arrays_evidence-level_1=0,Nb_arrays_evidence-level_2=0,Nb_arrays_evidence-level_3=1,Nb_arrays_evidence-level_4=0		0
MPHR01000063		0	Nb_arrays_evidence-level_1=0,Nb_arrays_evidence-level_2=0,Nb_arrays_evidence-level_3=0,Nb_arrays_evidence-level_4=0		0
MPHR01000064		0	Nb_arrays_evidence-level_1=0,Nb_arrays_evidence-level_2=0,Nb_arrays_evidence-level_3=0,Nb_arrays_evidence-level_4=0		0
MPHR01000065		0	Nb_arrays_evidence-level_1=0,Nb_arrays_evidence-level_2=0,Nb_arrays_evidence-level_3=0,Nb_arrays_evidence-level_4=0		0
MPHR01000066		0	Nb_arrays_evidence-level_1=0,Nb_arrays_evidence-level_2=0,Nb_arrays_evidence-level_3=0,Nb_arrays_evidence-level_4=0		0
MPHR01000067		0	Nb_arrays_evidence-level_1=0,Nb_arrays_evidence-level_2=0,Nb_arrays_evidence-level_3=0,Nb_arrays_evidence-level_4=0		0
MPHR01000068		0	Nb_arrays_evidence-level_1=0,Nb_arrays_evidence-level_2=0,Nb_arrays_evidence-level_3=0,Nb_arrays_evidence-level_4=0		0
MPHR01000069		0	Nb_arrays_evidence-level_1=0,Nb_arrays_evidence-level_2=0,Nb_arrays_evidence-level_3=0,Nb_arrays_evidence-level_4=0		0
MPHR01000070		0	Nb_arrays_evidence-level_1=0,Nb_arrays_evidence-level_2=0,Nb_arrays_evidence-level_3=0,Nb_arrays_evidence-level_4=0		0
MPHR01000071		0	Nb_arrays_evidence-level_1=0,Nb_arrays_evidence-level_2=0,Nb_arrays_evidence-level_3=0,Nb_arrays_evidence-level_4=0		0
MPHR01000072		0	Nb_arrays_evidence-level_1=0,Nb_arrays_evidence-level_2=0,Nb_arrays_evidence-level_3=0,Nb_arrays_evidence-level_4=0		0
MPHR01000073		0	Nb_arrays_evidence-level_1=0,Nb_arrays_evidence-level_2=0,Nb_arrays_evidence-level_3=0,Nb_arrays_evidence-level_4=0		0
MPHR01000074		0	Nb_arrays_evidence-level_1=0,Nb_arrays_evidence-level_2=0,Nb_arrays_evidence-level_3=0,Nb_arrays_evidence-level_4=0		0
MPHR01000075		0	Nb_arrays_evidence-level_1=0,Nb_arrays_evidence-level_2=0,Nb_arrays_evidence-level_3=0,Nb_arrays_evidence-level_4=0		0
MPHR01000076		0	Nb_arrays_evidence-level_1=0,Nb_arrays_evidence-level_2=0,Nb_arrays_evidence-level_3=0,Nb_arrays_evidence-level_4=0		0
MPHR01000077		0	Nb_arrays_evidence-level_1=0,Nb_arrays_evidence-level_2=0,Nb_arrays_evidence-level_3=0,Nb_arrays_evidence-level_4=0		0
MPHR01000078		0	Nb_arrays_evidence-level_1=0,Nb_arrays_evidence-level_2=0,Nb_arrays_evidence-level_3=0,Nb_arrays_evidence-level_4=0		0
MPHR01000079		0	Nb_arrays_evidence-level_1=0,Nb_arrays_evidence-level_2=0,Nb_arrays_evidence-level_3=0,Nb_arrays_evidence-level_4=0		0
MPHR01000080		0	Nb_arrays_evidence-level_1=0,Nb_arrays_evidence-level_2=0,Nb_arrays_evidence-level_3=0,Nb_arrays_evidence-level_4=0		0
MPHR01000081		0	Nb_arrays_evidence-level_1=0,Nb_arrays_evidence-level_2=0,Nb_arrays_evidence-level_3=0,Nb_arrays_evidence-level_4=0		0
MPHR01000082		0	Nb_arrays_evidence-level_1=0,Nb_arrays_evidence-level_2=0,Nb_arrays_evidence-level_3=0,Nb_arrays_evidence-level_4=0		0
MPHR01000083		0	Nb_arrays_evidence-level_1=0,Nb_arrays_evidence-level_2=0,Nb_arrays_evidence-level_3=0,Nb_arrays_evidence-level_4=0		0
MPHR01000084		0	Nb_arrays_evidence-level_1=0,Nb_arrays_evidence-level_2=0,Nb_arrays_evidence-level_3=0,Nb_arrays_evidence-level_4=0		0
MPHR01000085		0	Nb_arrays_evidence-level_1=0,Nb_arrays_evidence-level_2=0,Nb_arrays_evidence-level_3=0,Nb_arrays_evidence-level_4=0		0
MPHR01000086		0	Nb_arrays_evidence-level_1=0,Nb_arrays_evidence-level_2=0,Nb_arrays_evidence-level_3=0,Nb_arrays_evidence-level_4=0		0
MPHR01000087		0	Nb_arrays_evidence-level_1=0,Nb_arrays_evidence-level_2=0,Nb_arrays_evidence-level_3=0,Nb_arrays_evidence-level_4=0		0
MPHR01000088		0	Nb_arrays_evidence-level_1=0,Nb_arrays_evidence-level_2=0,Nb_arrays_evidence-level_3=0,Nb_arrays_evidence-level_4=0		0
MPHR01000089		0	Nb_arrays_evidence-level_1=0,Nb_arrays_evidence-level_2=0,Nb_arrays_evidence-level_3=0,Nb_arrays_evidence-level_4=0		0
MPHR01000090		0	Nb_arrays_evidence-level_1=0,Nb_arrays_evidence-level_2=0,Nb_arrays_evidence-level_3=0,Nb_arrays_evidence-level_4=0		0
MPHR01000091		0	Nb_arrays_evidence-level_1=0,Nb_arrays_evidence-level_2=0,Nb_arrays_evidence-level_3=0,Nb_arrays_evidence-level_4=0		0
MPHR01000092		0	Nb_arrays_evidence-level_1=0,Nb_arrays_evidence-level_2=0,Nb_arrays_evidence-level_3=0,Nb_arrays_evidence-level_4=0		0
MPHR01000093		0	Nb_arrays_evidence-level_1=0,Nb_arrays_evidence-level_2=0,Nb_arrays_evidence-level_3=0,Nb_arrays_evidence-level_4=0		0
MPHR01000094		0	Nb_arrays_evidence-level_1=0,Nb_arrays_evidence-level_2=0,Nb_arrays_evidence-level_3=0,Nb_arrays_evidence-level_4=0		0
MPHR01000095		0	Nb_arrays_evidence-level_1=0,Nb_arrays_evidence-level_2=0,Nb_arrays_evidence-level_3=0,Nb_arrays_evidence-level_4=0		0
MPHR01000096		0	Nb_arrays_evidence-level_1=0,Nb_arrays_evidence-level_2=0,Nb_arrays_evidence-level_3=0,Nb_arrays_evidence-level_4=0		0
MPHR01000097		0	Nb_arrays_evidence-level_1=0,Nb_arrays_evidence-level_2=0,Nb_arrays_evidence-level_3=0,Nb_arrays_evidence-level_4=0		0
MPHR01000098		0	Nb_arrays_evidence-level_1=0,Nb_arrays_evidence-level_2=0,Nb_arrays_evidence-level_3=0,Nb_arrays_evidence-level_4=0		0
MPHR01000099		0	Nb_arrays_evidence-level_1=0,Nb_arrays_evidence-level_2=0,Nb_arrays_evidence-level_3=0,Nb_arrays_evidence-level_4=0		0
MPHR01000100		0	Nb_arrays_evidence-level_1=0,Nb_arrays_evidence-level_2=0,Nb_arrays_evidence-level_3=0,Nb_arrays_evidence-level_4=0		0
MPHR01000101		0	Nb_arrays_evidence-level_1=0,Nb_arrays_evidence-level_2=0,Nb_arrays_evidence-level_3=0,Nb_arrays_evidence-level_4=0		0
MPHR01000102		0	Nb_arrays_evidence-level_1=0,Nb_arrays_evidence-level_2=0,Nb_arrays_evidence-level_3=0,Nb_arrays_evidence-level_4=0		0
MPHR01000103		0	Nb_arrays_evidence-level_1=0,Nb_arrays_evidence-level_2=0,Nb_arrays_evidence-level_3=0,Nb_arrays_evidence-level_4=0		0
MPHR01000104		0	Nb_arrays_evidence-level_1=0,Nb_arrays_evidence-level_2=0,Nb_arrays_evidence-level_3=0,Nb_arrays_evidence-level_4=0		0
MPHR01000105		0	Nb_arrays_evidence-level_1=0,Nb_arrays_evidence-level_2=0,Nb_arrays_evidence-level_3=0,Nb_arrays_evidence-level_4=0		0
MPHR01000106		0	Nb_arrays_evidence-level_1=0,Nb_arrays_evidence-level_2=0,Nb_arrays_evidence-level_3=0,Nb_arrays_evidence-level_4=0		0
MPHR01000107		0	Nb_arrays_evidence-level_1=0,Nb_arrays_evidence-level_2=0,Nb_arrays_evidence-level_3=0,Nb_arrays_evidence-level_4=0		0
MPHR01000108		0	Nb_arrays_evidence-level_1=0,Nb_arrays_evidence-level_2=0,Nb_arrays_evidence-level_3=0,Nb_arrays_evidence-level_4=0		0
MPHR01000109		0	Nb_arrays_evidence-level_1=0,Nb_arrays_evidence-level_2=0,Nb_arrays_evidence-level_3=0,Nb_arrays_evidence-level_4=0		0
MPHR01000110		0	Nb_arrays_evidence-level_1=0,Nb_arrays_evidence-level_2=0,Nb_arrays_evidence-level_3=0,Nb_arrays_evidence-level_4=0		0
MPHR01000111		0	Nb_arrays_evidence-level_1=0,Nb_arrays_evidence-level_2=0,Nb_arrays_evidence-level_3=0,Nb_arrays_evidence-level_4=0		0
MPHR01000112		0	Nb_arrays_evidence-level_1=0,Nb_arrays_evidence-level_2=0,Nb_arrays_evidence-level_3=0,Nb_arrays_evidence-level_4=0		0
MPHR01000113		0	Nb_arrays_evidence-level_1=0,Nb_arrays_evidence-level_2=0,Nb_arrays_evidence-level_3=0,Nb_arrays_evidence-level_4=0		0
MPHR01000114		0	Nb_arrays_evidence-level_1=0,Nb_arrays_evidence-level_2=0,Nb_arrays_evidence-level_3=0,Nb_arrays_evidence-level_4=0		0
MPHR01000115		0	Nb_arrays_evidence-level_1=0,Nb_arrays_evidence-level_2=0,Nb_arrays_evidence-level_3=0,Nb_arrays_evidence-level_4=0		0
MPHR01000116		0	Nb_arrays_evidence-level_1=0,Nb_arrays_evidence-level_2=0,Nb_arrays_evidence-level_3=0,Nb_arrays_evidence-level_4=0		0
MPHR01000117		0	Nb_arrays_evidence-level_1=0,Nb_arrays_evidence-level_2=0,Nb_arrays_evidence-level_3=0,Nb_arrays_evidence-level_4=0		0
MPHR01000118		0	Nb_arrays_evidence-level_1=0,Nb_arrays_evidence-level_2=0,Nb_arrays_evidence-level_3=0,Nb_arrays_evidence-level_4=0		0
MPHR01000119		0	Nb_arrays_evidence-level_1=0,Nb_arrays_evidence-level_2=0,Nb_arrays_evidence-level_3=0,Nb_arrays_evidence-level_4=0		0
MPHR01000120		0	Nb_arrays_evidence-level_1=0,Nb_arrays_evidence-level_2=0,Nb_arrays_evidence-level_3=0,Nb_arrays_evidence-level_4=0		0
MPHR01000121		0	Nb_arrays_evidence-level_1=0,Nb_arrays_evidence-level_2=0,Nb_arrays_evidence-level_3=0,Nb_arrays_evidence-level_4=0		0
MPHR01000122		0	Nb_arrays_evidence-level_1=0,Nb_arrays_evidence-level_2=0,Nb_arrays_evidence-level_3=0,Nb_arrays_evidence-level_4=0		0
MPHR01000123		0	Nb_arrays_evidence-level_1=0,Nb_arrays_evidence-level_2=0,Nb_arrays_evidence-level_3=0,Nb_arrays_evidence-level_4=0		0
MPHR01000124		0	Nb_arrays_evidence-level_1=0,Nb_arrays_evidence-level_2=0,Nb_arrays_evidence-level_3=0,Nb_arrays_evidence-level_4=0		0
MPHR01000125		0	Nb_arrays_evidence-level_1=0,Nb_arrays_evidence-level_2=0,Nb_arrays_evidence-level_3=0,Nb_arrays_evidence-level_4=0		0
MPHR01000126		0	Nb_arrays_evidence-level_1=0,Nb_arrays_evidence-level_2=0,Nb_arrays_evidence-level_3=0,Nb_arrays_evidence-level_4=0		0
MPHR01000127		0	Nb_arrays_evidence-level_1=0,Nb_arrays_evidence-level_2=0,Nb_arrays_evidence-level_3=0,Nb_arrays_evidence-level_4=0		0
MPHR01000128		0	Nb_arrays_evidence-level_1=0,Nb_arrays_evidence-level_2=0,Nb_arrays_evidence-level_3=0,Nb_arrays_evidence-level_4=0		0
MPHR01000129		0	Nb_arrays_evidence-level_1=0,Nb_arrays_evidence-level_2=0,Nb_arrays_evidence-level_3=0,Nb_arrays_evidence-level_4=0		0
MPHR01000130		0	Nb_arrays_evidence-level_1=0,Nb_arrays_evidence-level_2=0,Nb_arrays_evidence-level_3=0,Nb_arrays_evidence-level_4=0		0
MPHR01000131		0	Nb_arrays_evidence-level_1=0,Nb_arrays_evidence-level_2=0,Nb_arrays_evidence-level_3=0,Nb_arrays_evidence-level_4=0		0
MPHR01000132		0	Nb_arrays_evidence-level_1=0,Nb_arrays_evidence-level_2=0,Nb_arrays_evidence-level_3=0,Nb_arrays_evidence-level_4=0		0
MPHR01000133		0	Nb_arrays_evidence-level_1=0,Nb_arrays_evidence-level_2=0,Nb_arrays_evidence-level_3=0,Nb_arrays_evidence-level_4=0		0
MPHR01000134		0	Nb_arrays_evidence-level_1=0,Nb_arrays_evidence-level_2=0,Nb_arrays_evidence-level_3=0,Nb_arrays_evidence-level_4=0		0
MPHR01000135		0	Nb_arrays_evidence-level_1=0,Nb_arrays_evidence-level_2=0,Nb_arrays_evidence-level_3=0,Nb_arrays_evidence-level_4=0		0
MPHR01000136		0	Nb_arrays_evidence-level_1=0,Nb_arrays_evidence-level_2=0,Nb_arrays_evidence-level_3=0,Nb_arrays_evidence-level_4=0		0
MPHR01000137		0	Nb_arrays_evidence-level_1=0,Nb_arrays_evidence-level_2=0,Nb_arrays_evidence-level_3=0,Nb_arrays_evidence-level_4=0		0
MPHR01000138		0	Nb_arrays_evidence-level_1=0,Nb_arrays_evidence-level_2=0,Nb_arrays_evidence-level_3=0,Nb_arrays_evidence-level_4=0		0
MPHR01000139		0	Nb_arrays_evidence-level_1=0,Nb_arrays_evidence-level_2=0,Nb_arrays_evidence-level_3=0,Nb_arrays_evidence-level_4=0		0
MPHR01000140		0	Nb_arrays_evidence-level_1=0,Nb_arrays_evidence-level_2=0,Nb_arrays_evidence-level_3=0,Nb_arrays_evidence-level_4=0		0
MPHR01000141		0	Nb_arrays_evidence-level_1=0,Nb_arrays_evidence-level_2=0,Nb_arrays_evidence-level_3=0,Nb_arrays_evidence-level_4=0		0
MPHR01000142		0	Nb_arrays_evidence-level_1=0,Nb_arrays_evidence-level_2=0,Nb_arrays_evidence-level_3=0,Nb_arrays_evidence-level_4=0		0
MPHR01000143		0	Nb_arrays_evidence-level_1=0,Nb_arrays_evidence-level_2=0,Nb_arrays_evidence-level_3=0,Nb_arrays_evidence-level_4=0		0
MPHR01000144		0	Nb_arrays_evidence-level_1=0,Nb_arrays_evidence-level_2=0,Nb_arrays_evidence-level_3=0,Nb_arrays_evidence-level_4=0		0
MPHR01000145		0	Nb_arrays_evidence-level_1=0,Nb_arrays_evidence-level_2=0,Nb_arrays_evidence-level_3=0,Nb_arrays_evidence-level_4=0		0
MPHR01000146		0	Nb_arrays_evidence-level_1=0,Nb_arrays_evidence-level_2=0,Nb_arrays_evidence-level_3=0,Nb_arrays_evidence-level_4=0		0
MPHR01000147		0	Nb_arrays_evidence-level_1=0,Nb_arrays_evidence-level_2=0,Nb_arrays_evidence-level_3=0,Nb_arrays_evidence-level_4=0		0
MPHR01000148		0	Nb_arrays_evidence-level_1=0,Nb_arrays_evidence-level_2=0,Nb_arrays_evidence-level_3=0,Nb_arrays_evidence-level_4=0		0
MPHR01000149		0	Nb_arrays_evidence-level_1=0,Nb_arrays_evidence-level_2=0,Nb_arrays_evidence-level_3=0,Nb_arrays_evidence-level_4=0		0
MPHR01000150		0	Nb_arrays_evidence-level_1=0,Nb_arrays_evidence-level_2=0,Nb_arrays_evidence-level_3=0,Nb_arrays_evidence-level_4=0		0
MPHR01000151		0	Nb_arrays_evidence-level_1=0,Nb_arrays_evidence-level_2=0,Nb_arrays_evidence-level_3=0,Nb_arrays_evidence-level_4=0		0
MPHR01000152		0	Nb_arrays_evidence-level_1=0,Nb_arrays_evidence-level_2=0,Nb_arrays_evidence-level_3=0,Nb_arrays_evidence-level_4=0		0
MPHR01000153		0	Nb_arrays_evidence-level_1=0,Nb_arrays_evidence-level_2=0,Nb_arrays_evidence-level_3=0,Nb_arrays_evidence-level_4=0		0
MPHR01000154		0	Nb_arrays_evidence-level_1=0,Nb_arrays_evidence-level_2=0,Nb_arrays_evidence-level_3=0,Nb_arrays_evidence-level_4=0		0
MPHR01000155		0	Nb_arrays_evidence-level_1=0,Nb_arrays_evidence-level_2=0,Nb_arrays_evidence-level_3=0,Nb_arrays_evidence-level_4=0		0
MPHR01000156		0	Nb_arrays_evidence-level_1=0,Nb_arrays_evidence-level_2=0,Nb_arrays_evidence-level_3=0,Nb_arrays_evidence-level_4=0		0
MPHR01000157		0	Nb_arrays_evidence-level_1=0,Nb_arrays_evidence-level_2=0,Nb_arrays_evidence-level_3=0,Nb_arrays_evidence-level_4=0		0
MPHR01000158		0	Nb_arrays_evidence-level_1=0,Nb_arrays_evidence-level_2=0,Nb_arrays_evidence-level_3=0,Nb_arrays_evidence-level_4=0		0
MPHR01000159		0	Nb_arrays_evidence-level_1=0,Nb_arrays_evidence-level_2=0,Nb_arrays_evidence-level_3=0,Nb_arrays_evidence-level_4=0		0
MPHR01000160		0	Nb_arrays_evidence-level_1=0,Nb_arrays_evidence-level_2=0,Nb_arrays_evidence-level_3=0,Nb_arrays_evidence-level_4=0		0
MPHR01000161		0	Nb_arrays_evidence-level_1=0,Nb_arrays_evidence-level_2=0,Nb_arrays_evidence-level_3=0,Nb_arrays_evidence-level_4=0		0
MPHR01000162		0	Nb_arrays_evidence-level_1=0,Nb_arrays_evidence-level_2=0,Nb_arrays_evidence-level_3=0,Nb_arrays_evidence-level_4=0		0
MPHR01000163		0	Nb_arrays_evidence-level_1=0,Nb_arrays_evidence-level_2=0,Nb_arrays_evidence-level_3=0,Nb_arrays_evidence-level_4=0		0
MPHR01000164		0	Nb_arrays_evidence-level_1=0,Nb_arrays_evidence-level_2=0,Nb_arrays_evidence-level_3=0,Nb_arrays_evidence-level_4=0		0
MPHR01000165		0	Nb_arrays_evidence-level_1=0,Nb_arrays_evidence-level_2=0,Nb_arrays_evidence-level_3=0,Nb_arrays_evidence-level_4=0		0
MPHR01000166		0	Nb_arrays_evidence-level_1=0,Nb_arrays_evidence-level_2=0,Nb_arrays_evidence-level_3=0,Nb_arrays_evidence-level_4=0		0
MPHR01000167		0	Nb_arrays_evidence-level_1=0,Nb_arrays_evidence-level_2=0,Nb_arrays_evidence-level_3=0,Nb_arrays_evidence-level_4=0		0
MPHR01000168		0	Nb_arrays_evidence-level_1=0,Nb_arrays_evidence-level_2=0,Nb_arrays_evidence-level_3=0,Nb_arrays_evidence-level_4=0		0
MPHR01000169		0	Nb_arrays_evidence-level_1=0,Nb_arrays_evidence-level_2=0,Nb_arrays_evidence-level_3=0,Nb_arrays_evidence-level_4=0		0
MPHR01000170		0	Nb_arrays_evidence-level_1=0,Nb_arrays_evidence-level_2=0,Nb_arrays_evidence-level_3=0,Nb_arrays_evidence-level_4=0		0
MPHR01000171		0	Nb_arrays_evidence-level_1=0,Nb_arrays_evidence-level_2=0,Nb_arrays_evidence-level_3=0,Nb_arrays_evidence-level_4=0		0
MPHR01000172		0	Nb_arrays_evidence-level_1=0,Nb_arrays_evidence-level_2=0,Nb_arrays_evidence-level_3=0,Nb_arrays_evidence-level_4=0		0
MPHR01000173		0	Nb_arrays_evidence-level_1=0,Nb_arrays_evidence-level_2=0,Nb_arrays_evidence-level_3=0,Nb_arrays_evidence-level_4=0		0
MPHR01000174		0	Nb_arrays_evidence-level_1=0,Nb_arrays_evidence-level_2=0,Nb_arrays_evidence-level_3=0,Nb_arrays_evidence-level_4=0		0
MPHR01000175		0	Nb_arrays_evidence-level_1=0,Nb_arrays_evidence-level_2=0,Nb_arrays_evidence-level_3=0,Nb_arrays_evidence-level_4=0		0
MPHR01000176		0	Nb_arrays_evidence-level_1=0,Nb_arrays_evidence-level_2=0,Nb_arrays_evidence-level_3=0,Nb_arrays_evidence-level_4=0		0
MPHR01000177		0	Nb_arrays_evidence-level_1=0,Nb_arrays_evidence-level_2=0,Nb_arrays_evidence-level_3=0,Nb_arrays_evidence-level_4=0		0
MPHR01000178		0	Nb_arrays_evidence-level_1=0,Nb_arrays_evidence-level_2=0,Nb_arrays_evidence-level_3=0,Nb_arrays_evidence-level_4=0		0
MPHR01000179		0	Nb_arrays_evidence-level_1=0,Nb_arrays_evidence-level_2=0,Nb_arrays_evidence-level_3=0,Nb_arrays_evidence-level_4=0		0
MPHR01000180		0	Nb_arrays_evidence-level_1=0,Nb_arrays_evidence-level_2=0,Nb_arrays_evidence-level_3=0,Nb_arrays_evidence-level_4=0		0
MPHR01000181		0	Nb_arrays_evidence-level_1=0,Nb_arrays_evidence-level_2=0,Nb_arrays_evidence-level_3=0,Nb_arrays_evidence-level_4=0		0
MPHR01000182		0	Nb_arrays_evidence-level_1=0,Nb_arrays_evidence-level_2=0,Nb_arrays_evidence-level_3=0,Nb_arrays_evidence-level_4=0		0
MPHR01000183		0	Nb_arrays_evidence-level_1=0,Nb_arrays_evidence-level_2=0,Nb_arrays_evidence-level_3=0,Nb_arrays_evidence-level_4=0		0
MPHR01000184		0	Nb_arrays_evidence-level_1=0,Nb_arrays_evidence-level_2=0,Nb_arrays_evidence-level_3=0,Nb_arrays_evidence-level_4=0		0
MPHR01000185		0	Nb_arrays_evidence-level_1=0,Nb_arrays_evidence-level_2=0,Nb_arrays_evidence-level_3=0,Nb_arrays_evidence-level_4=0		0
MPHR01000186		0	Nb_arrays_evidence-level_1=0,Nb_arrays_evidence-level_2=0,Nb_arrays_evidence-level_3=0,Nb_arrays_evidence-level_4=0		0
MPHR01000187		0	Nb_arrays_evidence-level_1=0,Nb_arrays_evidence-level_2=0,Nb_arrays_evidence-level_3=0,Nb_arrays_evidence-level_4=0		0
MPHR01000188		0	Nb_arrays_evidence-level_1=0,Nb_arrays_evidence-level_2=0,Nb_arrays_evidence-level_3=0,Nb_arrays_evidence-level_4=0		0
MPHR01000189		0	Nb_arrays_evidence-level_1=0,Nb_arrays_evidence-level_2=0,Nb_arrays_evidence-level_3=0,Nb_arrays_evidence-level_4=0		0
MPHR01000190		0	Nb_arrays_evidence-level_1=0,Nb_arrays_evidence-level_2=0,Nb_arrays_evidence-level_3=0,Nb_arrays_evidence-level_4=0		0
MPHR01000191		0	Nb_arrays_evidence-level_1=0,Nb_arrays_evidence-level_2=0,Nb_arrays_evidence-level_3=0,Nb_arrays_evidence-level_4=0		0
MPHR01000192		0	Nb_arrays_evidence-level_1=0,Nb_arrays_evidence-level_2=0,Nb_arrays_evidence-level_3=0,Nb_arrays_evidence-level_4=0		0
MPHR01000193		0	Nb_arrays_evidence-level_1=0,Nb_arrays_evidence-level_2=0,Nb_arrays_evidence-level_3=0,Nb_arrays_evidence-level_4=0		0
MPHR01000194		0	Nb_arrays_evidence-level_1=0,Nb_arrays_evidence-level_2=0,Nb_arrays_evidence-level_3=0,Nb_arrays_evidence-level_4=0		0
MPHR01000195		0	Nb_arrays_evidence-level_1=0,Nb_arrays_evidence-level_2=0,Nb_arrays_evidence-level_3=0,Nb_arrays_evidence-level_4=0		0
MPHR01000196		0	Nb_arrays_evidence-level_1=0,Nb_arrays_evidence-level_2=0,Nb_arrays_evidence-level_3=0,Nb_arrays_evidence-level_4=0		0
MPHR01000197		0	Nb_arrays_evidence-level_1=0,Nb_arrays_evidence-level_2=0,Nb_arrays_evidence-level_3=0,Nb_arrays_evidence-level_4=0		0
MPHR01000198		0	Nb_arrays_evidence-level_1=0,Nb_arrays_evidence-level_2=0,Nb_arrays_evidence-level_3=0,Nb_arrays_evidence-level_4=0		0
MPHR01000199		0	Nb_arrays_evidence-level_1=0,Nb_arrays_evidence-level_2=0,Nb_arrays_evidence-level_3=0,Nb_arrays_evidence-level_4=0		0
MPHR01000200		0	Nb_arrays_evidence-level_1=0,Nb_arrays_evidence-level_2=0,Nb_arrays_evidence-level_3=0,Nb_arrays_evidence-level_4=0		0
MPHR01000201		0	Nb_arrays_evidence-level_1=0,Nb_arrays_evidence-level_2=0,Nb_arrays_evidence-level_3=0,Nb_arrays_evidence-level_4=0		0
MPHR01000202		0	Nb_arrays_evidence-level_1=0,Nb_arrays_evidence-level_2=0,Nb_arrays_evidence-level_3=0,Nb_arrays_evidence-level_4=0		0
MPHR01000203		0	Nb_arrays_evidence-level_1=0,Nb_arrays_evidence-level_2=0,Nb_arrays_evidence-level_3=0,Nb_arrays_evidence-level_4=0		0
MPHR01000204		0	Nb_arrays_evidence-level_1=0,Nb_arrays_evidence-level_2=0,Nb_arrays_evidence-level_3=0,Nb_arrays_evidence-level_4=0		0
MPHR01000205		0	Nb_arrays_evidence-level_1=0,Nb_arrays_evidence-level_2=0,Nb_arrays_evidence-level_3=0,Nb_arrays_evidence-level_4=0		0
MPHR01000206		0	Nb_arrays_evidence-level_1=0,Nb_arrays_evidence-level_2=0,Nb_arrays_evidence-level_3=0,Nb_arrays_evidence-level_4=0		0
MPHR01000207		0	Nb_arrays_evidence-level_1=0,Nb_arrays_evidence-level_2=0,Nb_arrays_evidence-level_3=0,Nb_arrays_evidence-level_4=0		0
MPHR01000208		0	Nb_arrays_evidence-level_1=0,Nb_arrays_evidence-level_2=0,Nb_arrays_evidence-level_3=0,Nb_arrays_evidence-level_4=0		0
MPHR01000209		0	Nb_arrays_evidence-level_1=0,Nb_arrays_evidence-level_2=0,Nb_arrays_evidence-level_3=0,Nb_arrays_evidence-level_4=0		0
MPHR01000210		0	Nb_arrays_evidence-level_1=0,Nb_arrays_evidence-level_2=0,Nb_arrays_evidence-level_3=0,Nb_arrays_evidence-level_4=0		0
MPHR01000211		0	Nb_arrays_evidence-level_1=0,Nb_arrays_evidence-level_2=0,Nb_arrays_evidence-level_3=0,Nb_arrays_evidence-level_4=0		0
MPHR01000212		0	Nb_arrays_evidence-level_1=0,Nb_arrays_evidence-level_2=0,Nb_arrays_evidence-level_3=0,Nb_arrays_evidence-level_4=0		0
MPHR01000213		0	Nb_arrays_evidence-level_1=0,Nb_arrays_evidence-level_2=0,Nb_arrays_evidence-level_3=0,Nb_arrays_evidence-level_4=0		0
MPHR01000214		0	Nb_arrays_evidence-level_1=0,Nb_arrays_evidence-level_2=0,Nb_arrays_evidence-level_3=0,Nb_arrays_evidence-level_4=0		0
MPHR01000215		0	Nb_arrays_evidence-level_1=0,Nb_arrays_evidence-level_2=0,Nb_arrays_evidence-level_3=0,Nb_arrays_evidence-level_4=0		0
MPHR01000216		0	Nb_arrays_evidence-level_1=0,Nb_arrays_evidence-level_2=0,Nb_arrays_evidence-level_3=0,Nb_arrays_evidence-level_4=0		0
MPHR01000217		0	Nb_arrays_evidence-level_1=0,Nb_arrays_evidence-level_2=0,Nb_arrays_evidence-level_3=0,Nb_arrays_evidence-level_4=0		0
MPHR01000218		0	Nb_arrays_evidence-level_1=0,Nb_arrays_evidence-level_2=0,Nb_arrays_evidence-level_3=0,Nb_arrays_evidence-level_4=0		0
MPHR01000219		0	Nb_arrays_evidence-level_1=0,Nb_arrays_evidence-level_2=0,Nb_arrays_evidence-level_3=0,Nb_arrays_evidence-level_4=0		0
MPHR01000220		0	Nb_arrays_evidence-level_1=0,Nb_arrays_evidence-level_2=0,Nb_arrays_evidence-level_3=0,Nb_arrays_evidence-level_4=0		0
MPHR01000221		0	Nb_arrays_evidence-level_1=0,Nb_arrays_evidence-level_2=0,Nb_arrays_evidence-level_3=0,Nb_arrays_evidence-level_4=0		0
MPHR01000222		0	Nb_arrays_evidence-level_1=0,Nb_arrays_evidence-level_2=0,Nb_arrays_evidence-level_3=0,Nb_arrays_evidence-level_4=0		0
MPHR01000223		0	Nb_arrays_evidence-level_1=0,Nb_arrays_evidence-level_2=0,Nb_arrays_evidence-level_3=0,Nb_arrays_evidence-level_4=0		0
MPHR01000224		0	Nb_arrays_evidence-level_1=0,Nb_arrays_evidence-level_2=0,Nb_arrays_evidence-level_3=0,Nb_arrays_evidence-level_4=0		0
MPHR01000225		0	Nb_arrays_evidence-level_1=0,Nb_arrays_evidence-level_2=0,Nb_arrays_evidence-level_3=0,Nb_arrays_evidence-level_4=0		0
MPHR01000226		0	Nb_arrays_evidence-level_1=0,Nb_arrays_evidence-level_2=0,Nb_arrays_evidence-level_3=0,Nb_arrays_evidence-level_4=0		0
MPHR01000227		0	Nb_arrays_evidence-level_1=0,Nb_arrays_evidence-level_2=0,Nb_arrays_evidence-level_3=0,Nb_arrays_evidence-level_4=0		0
MPHR01000228		0	Nb_arrays_evidence-level_1=0,Nb_arrays_evidence-level_2=0,Nb_arrays_evidence-level_3=0,Nb_arrays_evidence-level_4=0		0
MPHR01000229		0	Nb_arrays_evidence-level_1=0,Nb_arrays_evidence-level_2=0,Nb_arrays_evidence-level_3=0,Nb_arrays_evidence-level_4=0		0
MPHR01000230		0	Nb_arrays_evidence-level_1=0,Nb_arrays_evidence-level_2=0,Nb_arrays_evidence-level_3=0,Nb_arrays_evidence-level_4=0		0
MPHR01000231		0	Nb_arrays_evidence-level_1=0,Nb_arrays_evidence-level_2=0,Nb_arrays_evidence-level_3=0,Nb_arrays_evidence-level_4=0		0
MPHR01000232		0	Nb_arrays_evidence-level_1=0,Nb_arrays_evidence-level_2=0,Nb_arrays_evidence-level_3=0,Nb_arrays_evidence-level_4=0		0
MPHR01000233		0	Nb_arrays_evidence-level_1=0,Nb_arrays_evidence-level_2=0,Nb_arrays_evidence-level_3=0,Nb_arrays_evidence-level_4=0		0
MPHR01000234		0	Nb_arrays_evidence-level_1=0,Nb_arrays_evidence-level_2=0,Nb_arrays_evidence-level_3=0,Nb_arrays_evidence-level_4=0		0
MPHR01000235		0	Nb_arrays_evidence-level_1=0,Nb_arrays_evidence-level_2=0,Nb_arrays_evidence-level_3=0,Nb_arrays_evidence-level_4=0		0
MPHR01000236		0	Nb_arrays_evidence-level_1=0,Nb_arrays_evidence-level_2=0,Nb_arrays_evidence-level_3=0,Nb_arrays_evidence-level_4=0		0
MPHR01000237		0	Nb_arrays_evidence-level_1=0,Nb_arrays_evidence-level_2=0,Nb_arrays_evidence-level_3=0,Nb_arrays_evidence-level_4=0		0
MPHR01000238		0	Nb_arrays_evidence-level_1=0,Nb_arrays_evidence-level_2=0,Nb_arrays_evidence-level_3=0,Nb_arrays_evidence-level_4=0		0
