Sequence(s)	CRISPR array(s)	Nb CRISPRs	Evidence-levels	Cas cluster(s)	Nb Cas	Cas Types/Subtypes
NODE_1_length_754021_cov_16		0	Nb_arrays_evidence-level_1=0,Nb_arrays_evidence-level_2=0,Nb_arrays_evidence-level_3=0,Nb_arrays_evidence-level_4=0		0
NODE_2_length_511504_cov_13	NODE_2_length_511504_cov_13_1[115119;115211] (evidence-level=1),	1	Nb_arrays_evidence-level_1=1,Nb_arrays_evidence-level_2=0,Nb_arrays_evidence-level_3=0,Nb_arrays_evidence-level_4=0		0
NODE_3_length_145146_cov_12		0	Nb_arrays_evidence-level_1=0,Nb_arrays_evidence-level_2=0,Nb_arrays_evidence-level_3=0,Nb_arrays_evidence-level_4=0		0
NODE_4_length_134105_cov_21		0	Nb_arrays_evidence-level_1=0,Nb_arrays_evidence-level_2=0,Nb_arrays_evidence-level_3=0,Nb_arrays_evidence-level_4=0		0
NODE_5_length_93138_cov_19		0	Nb_arrays_evidence-level_1=0,Nb_arrays_evidence-level_2=0,Nb_arrays_evidence-level_3=0,Nb_arrays_evidence-level_4=0		0
NODE_6_length_83507_cov_19		0	Nb_arrays_evidence-level_1=0,Nb_arrays_evidence-level_2=0,Nb_arrays_evidence-level_3=0,Nb_arrays_evidence-level_4=0		0
NODE_7_length_82596_cov_16		0	Nb_arrays_evidence-level_1=0,Nb_arrays_evidence-level_2=0,Nb_arrays_evidence-level_3=0,Nb_arrays_evidence-level_4=0		0
NODE_8_length_72323_cov_19		0	Nb_arrays_evidence-level_1=0,Nb_arrays_evidence-level_2=0,Nb_arrays_evidence-level_3=0,Nb_arrays_evidence-level_4=0		0
NODE_9_length_69947_cov_22		0	Nb_arrays_evidence-level_1=0,Nb_arrays_evidence-level_2=0,Nb_arrays_evidence-level_3=0,Nb_arrays_evidence-level_4=0		0
NODE_10_length_62345_cov_21		0	Nb_arrays_evidence-level_1=0,Nb_arrays_evidence-level_2=0,Nb_arrays_evidence-level_3=0,Nb_arrays_evidence-level_4=0		0
NODE_11_length_58443_cov_21		0	Nb_arrays_evidence-level_1=0,Nb_arrays_evidence-level_2=0,Nb_arrays_evidence-level_3=0,Nb_arrays_evidence-level_4=0		0
NODE_12_length_54235_cov_21		0	Nb_arrays_evidence-level_1=0,Nb_arrays_evidence-level_2=0,Nb_arrays_evidence-level_3=0,Nb_arrays_evidence-level_4=0		0
NODE_13_length_42928_cov_20		0	Nb_arrays_evidence-level_1=0,Nb_arrays_evidence-level_2=0,Nb_arrays_evidence-level_3=0,Nb_arrays_evidence-level_4=0		0
NODE_14_length_37435_cov_16		0	Nb_arrays_evidence-level_1=0,Nb_arrays_evidence-level_2=0,Nb_arrays_evidence-level_3=0,Nb_arrays_evidence-level_4=0		0
NODE_15_length_34080_cov_13	NODE_15_length_34080_cov_13_1[902;1093] (evidence-level=1),	1	Nb_arrays_evidence-level_1=1,Nb_arrays_evidence-level_2=0,Nb_arrays_evidence-level_3=0,Nb_arrays_evidence-level_4=0		0
NODE_16_length_32326_cov_56		0	Nb_arrays_evidence-level_1=0,Nb_arrays_evidence-level_2=0,Nb_arrays_evidence-level_3=0,Nb_arrays_evidence-level_4=0		0
NODE_17_length_32042_cov_12		0	Nb_arrays_evidence-level_1=0,Nb_arrays_evidence-level_2=0,Nb_arrays_evidence-level_3=0,Nb_arrays_evidence-level_4=0		0
NODE_18_length_30317_cov_52		0	Nb_arrays_evidence-level_1=0,Nb_arrays_evidence-level_2=0,Nb_arrays_evidence-level_3=0,Nb_arrays_evidence-level_4=0		0
NODE_19_length_28264_cov_22		0	Nb_arrays_evidence-level_1=0,Nb_arrays_evidence-level_2=0,Nb_arrays_evidence-level_3=0,Nb_arrays_evidence-level_4=0		0
NODE_20_length_23192_cov_19		0	Nb_arrays_evidence-level_1=0,Nb_arrays_evidence-level_2=0,Nb_arrays_evidence-level_3=0,Nb_arrays_evidence-level_4=0		0
NODE_21_length_18821_cov_53		0	Nb_arrays_evidence-level_1=0,Nb_arrays_evidence-level_2=0,Nb_arrays_evidence-level_3=0,Nb_arrays_evidence-level_4=0		0
NODE_22_length_16306_cov_19		0	Nb_arrays_evidence-level_1=0,Nb_arrays_evidence-level_2=0,Nb_arrays_evidence-level_3=0,Nb_arrays_evidence-level_4=0		0
NODE_23_length_6096_cov_53		0	Nb_arrays_evidence-level_1=0,Nb_arrays_evidence-level_2=0,Nb_arrays_evidence-level_3=0,Nb_arrays_evidence-level_4=0		0
NODE_24_length_5297_cov_90		0	Nb_arrays_evidence-level_1=0,Nb_arrays_evidence-level_2=0,Nb_arrays_evidence-level_3=0,Nb_arrays_evidence-level_4=0		0
NODE_25_length_4531_cov_50		0	Nb_arrays_evidence-level_1=0,Nb_arrays_evidence-level_2=0,Nb_arrays_evidence-level_3=0,Nb_arrays_evidence-level_4=0		0
NODE_26_length_3439_cov_23		0	Nb_arrays_evidence-level_1=0,Nb_arrays_evidence-level_2=0,Nb_arrays_evidence-level_3=0,Nb_arrays_evidence-level_4=0		0
NODE_27_length_2739_cov_59		0	Nb_arrays_evidence-level_1=0,Nb_arrays_evidence-level_2=0,Nb_arrays_evidence-level_3=0,Nb_arrays_evidence-level_4=0		0
NODE_28_length_2639_cov_84		0	Nb_arrays_evidence-level_1=0,Nb_arrays_evidence-level_2=0,Nb_arrays_evidence-level_3=0,Nb_arrays_evidence-level_4=0		0
NODE_29_length_2540_cov_51		0	Nb_arrays_evidence-level_1=0,Nb_arrays_evidence-level_2=0,Nb_arrays_evidence-level_3=0,Nb_arrays_evidence-level_4=0		0
NODE_30_length_2013_cov_54		0	Nb_arrays_evidence-level_1=0,Nb_arrays_evidence-level_2=0,Nb_arrays_evidence-level_3=0,Nb_arrays_evidence-level_4=0		0
NODE_31_length_1813_cov_60		0	Nb_arrays_evidence-level_1=0,Nb_arrays_evidence-level_2=0,Nb_arrays_evidence-level_3=0,Nb_arrays_evidence-level_4=0		0
NODE_32_length_1580_cov_40		0	Nb_arrays_evidence-level_1=0,Nb_arrays_evidence-level_2=0,Nb_arrays_evidence-level_3=0,Nb_arrays_evidence-level_4=0		0
NODE_33_length_1545_cov_27		0	Nb_arrays_evidence-level_1=0,Nb_arrays_evidence-level_2=0,Nb_arrays_evidence-level_3=0,Nb_arrays_evidence-level_4=0		0
NODE_34_length_1450_cov_20		0	Nb_arrays_evidence-level_1=0,Nb_arrays_evidence-level_2=0,Nb_arrays_evidence-level_3=0,Nb_arrays_evidence-level_4=0		0
NODE_35_length_1259_cov_65		0	Nb_arrays_evidence-level_1=0,Nb_arrays_evidence-level_2=0,Nb_arrays_evidence-level_3=0,Nb_arrays_evidence-level_4=0		0
NODE_36_length_1134_cov_13		0	Nb_arrays_evidence-level_1=0,Nb_arrays_evidence-level_2=0,Nb_arrays_evidence-level_3=0,Nb_arrays_evidence-level_4=0		0
NODE_37_length_681_cov_63		0	Nb_arrays_evidence-level_1=0,Nb_arrays_evidence-level_2=0,Nb_arrays_evidence-level_3=0,Nb_arrays_evidence-level_4=0		0
NODE_38_length_638_cov_30		0	Nb_arrays_evidence-level_1=0,Nb_arrays_evidence-level_2=0,Nb_arrays_evidence-level_3=0,Nb_arrays_evidence-level_4=0		0
NODE_39_length_628_cov_26		0	Nb_arrays_evidence-level_1=0,Nb_arrays_evidence-level_2=0,Nb_arrays_evidence-level_3=0,Nb_arrays_evidence-level_4=0		0
NODE_40_length_540_cov_37		0	Nb_arrays_evidence-level_1=0,Nb_arrays_evidence-level_2=0,Nb_arrays_evidence-level_3=0,Nb_arrays_evidence-level_4=0		0
NODE_41_length_525_cov_61		0	Nb_arrays_evidence-level_1=0,Nb_arrays_evidence-level_2=0,Nb_arrays_evidence-level_3=0,Nb_arrays_evidence-level_4=0		0
NODE_42_length_520_cov_105		0	Nb_arrays_evidence-level_1=0,Nb_arrays_evidence-level_2=0,Nb_arrays_evidence-level_3=0,Nb_arrays_evidence-level_4=0		0
