BLASTN 2.11.0+


Reference: Zheng Zhang, Scott Schwartz, Lukas Wagner, and Webb
Miller (2000), "A greedy algorithm for aligning DNA sequences", J
Comput Biol 2000; 7(1-2):203-14.



Database: Nucleotide collection (nt)
           75,232,634 sequences; 567,103,167,726 total letters



Query= GCA_002072475_Dairy_1_GCA_002072495_Dairy_1_GCA_002072555_Dairy_1_GC
A_00207257_Dairy_3

Length=30

RID: S0BYU08M016


***** No hits found *****



Lambda      K        H
    1.33    0.621     1.12 

Gapped
Lambda      K        H
    1.28    0.460    0.850 

Effective search space used: 0


Query= GCA_901830415_Other_3

Length=30

RID: S0BYU08M016


***** No hits found *****



Lambda      K        H
    1.33    0.621     1.12 

Gapped
Lambda      K        H
    1.28    0.460    0.850 

Effective search space used: 0


Query= DK0181_DTU_2_DK0313_DTU_2

Length=102

RID: S0BYU08M016


***** No hits found *****



Lambda      K        H
    1.33    0.621     1.12 

Gapped
Lambda      K        H
    1.28    0.460    0.850 

Effective search space used: 0


Query= DK0323_DTU_1_DK0339_DTU_1

Length=40

RID: S0BYU08M016


***** No hits found *****



Lambda      K        H
    1.33    0.621     1.12 

Gapped
Lambda      K        H
    1.28    0.460    0.850 

Effective search space used: 0


Query= GCA_002092255_Dairy_2_GCA_00209235_Dairy_2_GCA_00209255_Dairy_2_GCA_
002092635_Dairy_3

Length=31

RID: S0BYU08M016


***** No hits found *****



Lambda      K        H
    1.33    0.621     1.12 

Gapped
Lambda      K        H
    1.28    0.460    0.850 

Effective search space used: 0


Query= DK96_S8_L002_DTU_1_DK96_S8_L003_DTU_1_GCA_901830415_Other_1

Length=30

RID: S0BYU08M016


***** No hits found *****



Lambda      K        H
    1.33    0.621     1.12 

Gapped
Lambda      K        H
    1.28    0.460    0.850 

Effective search space used: 0


Query= DK0323_DTU_3_DK0339_DTU_3

Length=40

RID: S0BYU08M016


***** No hits found *****



Lambda      K        H
    1.33    0.621     1.12 

Gapped
Lambda      K        H
    1.28    0.460    0.850 

Effective search space used: 0


Query= DK96_S8_L001_DTU_7_DK96_S8_L004_DTU_7

Length=30

RID: S0BYU08M016


***** No hits found *****



Lambda      K        H
    1.33    0.621     1.12 

Gapped
Lambda      K        H
    1.28    0.460    0.850 

Effective search space used: 0


Query= DK0323_DTU_2_DK0339_DTU_2

Length=41

RID: S0BYU08M016


***** No hits found *****



Lambda      K        H
    1.33    0.621     1.12 

Gapped
Lambda      K        H
    1.28    0.460    0.850 

Effective search space used: 0


Query= GCA_002072475_Dairy_2_GCA_002072495_Dairy_2_GCA_002072555_Dairy_2_GC
A_00207257_Dairy_4_GCA_002072585_Dairy_1_GCA_002092235_Dairy_1_GCA_0
02092535_Dairy_1

Length=30

RID: S0BYU08M016


***** No hits found *****



Lambda      K        H
    1.33    0.621     1.12 

Gapped
Lambda      K        H
    1.28    0.460    0.850 

Effective search space used: 0


Query= DK0099_DTU_2_DK102_S9_L001_DTU_1_DK102_S9_L002_DTU_2

Length=42

RID: S0BYU08M016


***** No hits found *****



Lambda      K        H
    1.33    0.621     1.12 

Gapped
Lambda      K        H
    1.28    0.460    0.850 

Effective search space used: 0


Query= DK96_S8_L002_DTU_6_DK96_S8_L003_DTU_6

Length=30

RID: S0BYU08M016


***** No hits found *****



Lambda      K        H
    1.33    0.621     1.12 

Gapped
Lambda      K        H
    1.28    0.460    0.850 

Effective search space used: 0


Query= DK96_S8_L001_DTU_6_DK96_S8_L004_DTU_6

Length=30

RID: S0BYU08M016


***** No hits found *****



Lambda      K        H
    1.33    0.621     1.12 

Gapped
Lambda      K        H
    1.28    0.460    0.850 

Effective search space used: 0


Query= DK96_S8_L002_DTU_4_DK96_S8_L003_DTU_4

Length=30

RID: S0BYU08M016


***** No hits found *****



Lambda      K        H
    1.33    0.621     1.12 

Gapped
Lambda      K        H
    1.28    0.460    0.850 

Effective search space used: 0


Query= GCA_002072585_Dairy_2_GCA_002092235_Dairy_2_GCA_002092535_Dairy_2

Length=30

RID: S0BYU08M016


***** No hits found *****



Lambda      K        H
    1.33    0.621     1.12 

Gapped
Lambda      K        H
    1.28    0.460    0.850 

Effective search space used: 0


Query= GCA_002072475_Dairy_3_GCA_002072475_Dairy_4_GCA_002072495_Dairy_5_GC
A_002072555_Dairy_8_GCA_00207257_Dairy_5_GCA_00207257_Dairy_6_GCA_00
207257_Dairy_8_GCA_002072585_Dairy_6_GCA_002092235_Dairy_6_GCA_00209
2535_Dairy_7

Length=30

RID: S0BYU08M016


***** No hits found *****



Lambda      K        H
    1.33    0.621     1.12 

Gapped
Lambda      K        H
    1.28    0.460    0.850 

Effective search space used: 0


Query= GCA_002092635_Dairy_5

Length=40

RID: S0BYU08M016


***** No hits found *****



Lambda      K        H
    1.33    0.621     1.12 

Gapped
Lambda      K        H
    1.28    0.460    0.850 

Effective search space used: 0


Query= DK96_S8_L001_DTU_5_DK96_S8_L004_DTU_5

Length=30

RID: S0BYU08M016


***** No hits found *****



Lambda      K        H
    1.33    0.621     1.12 

Gapped
Lambda      K        H
    1.28    0.460    0.850 

Effective search space used: 0


Query= GCA_00207257_Dairy_9

Length=44

RID: S0BYU08M016


***** No hits found *****



Lambda      K        H
    1.33    0.621     1.12 

Gapped
Lambda      K        H
    1.28    0.460    0.850 

Effective search space used: 0


Query= GCA_000686465_Dairy_5_GCA_000686505_Dairy_6_GCA_002092295_Dairy_5

Length=30

RID: S0BYU08M016


***** No hits found *****



Lambda      K        H
    1.33    0.621     1.12 

Gapped
Lambda      K        H
    1.28    0.460    0.850 

Effective search space used: 0


Query= DK96_S8_L002_DTU_3_DK96_S8_L003_DTU_3

Length=30

RID: S0BYU08M016


***** No hits found *****



Lambda      K        H
    1.33    0.621     1.12 

Gapped
Lambda      K        H
    1.28    0.460    0.850 

Effective search space used: 0


Query= GCA_901830415_Other_5

Length=30

RID: S0BYU08M016


***** No hits found *****



Lambda      K        H
    1.33    0.621     1.12 

Gapped
Lambda      K        H
    1.28    0.460    0.850 

Effective search space used: 0


Query= GCA_000686465_Dairy_3_GCA_000686505_Dairy_4_GCA_002092295_Dairy_4

Length=30

RID: S0BYU08M016


***** No hits found *****



Lambda      K        H
    1.33    0.621     1.12 

Gapped
Lambda      K        H
    1.28    0.460    0.850 

Effective search space used: 0


Query= GCA_000686505_Dairy_2_GCA_002092295_Dairy_2

Length=30

RID: S0BYU08M016


***** No hits found *****



Lambda      K        H
    1.33    0.621     1.12 

Gapped
Lambda      K        H
    1.28    0.460    0.850 

Effective search space used: 0


Query= DK96_S8_L001_DTU_4_DK96_S8_L004_DTU_4

Length=30

RID: S0BYU08M016


***** No hits found *****



Lambda      K        H
    1.33    0.621     1.12 

Gapped
Lambda      K        H
    1.28    0.460    0.850 

Effective search space used: 0


Query= GCA_002072475_Dairy_5_GCA_002072495_Dairy_4_GCA_002072555_Dairy_4_GC
A_002072555_Dairy_7_GCA_002092535_Dairy_3

Length=30

RID: S0BYU08M016


***** No hits found *****



Lambda      K        H
    1.33    0.621     1.12 

Gapped
Lambda      K        H
    1.28    0.460    0.850 

Effective search space used: 0


Query= DK102_S9_L003_DTU_2_DK102_S9_L004_DTU_2

Length=42

RID: S0BYU08M016


***** No hits found *****



Lambda      K        H
    1.33    0.621     1.12 

Gapped
Lambda      K        H
    1.28    0.460    0.850 

Effective search space used: 0


Query= GCA_002092035_Dairy_3_GCA_002092075_Dairy_3_GCA_002092165_Dairy_3_GC
A_002092375_Dairy_3

Length=30

RID: S0BYU08M016


***** No hits found *****



Lambda      K        H
    1.33    0.621     1.12 

Gapped
Lambda      K        H
    1.28    0.460    0.850 

Effective search space used: 0


Query= DK0314_DTU_3_DK0322_DTU_3

Length=40

RID: S0BYU08M016


***** No hits found *****



Lambda      K        H
    1.33    0.621     1.12 

Gapped
Lambda      K        H
    1.28    0.460    0.850 

Effective search space used: 0


Query= GCA_000686465_Dairy_1_GCA_000686505_Dairy_1_GCA_002072505_Dairy_2_GC
A_002072505_Dairy_4_GCA_002072505_Dairy_5_GCA_00207257_Dairy_13_GCA_
00207257_Dairy_15_GCA_002092035_Dairy_1_GCA_002092075_Dairy_1_GCA_00
2092165_Dairy_1_GCA_002092295_Dairy_1_GCA_002092375_Dairy_1_GCA_0020
92645_Dairy_1_GCA_002092645_Dairy_3_GCA_002092645_Dairy_4

Length=30

RID: S0BYU08M016


***** No hits found *****



Lambda      K        H
    1.33    0.621     1.12 

Gapped
Lambda      K        H
    1.28    0.460    0.850 

Effective search space used: 0


Query= DK0180_DTU_1_DK0181_DTU_3_DK0313_DTU_3

Length=39

RID: S0BYU08M016


***** No hits found *****



Lambda      K        H
    1.33    0.621     1.12 

Gapped
Lambda      K        H
    1.28    0.460    0.850 

Effective search space used: 0


Query= DK96_S8_L002_DTU_9_DK96_S8_L003_DTU_9

Length=30

RID: S0BYU08M016


***** No hits found *****



Lambda      K        H
    1.33    0.621     1.12 

Gapped
Lambda      K        H
    1.28    0.460    0.850 

Effective search space used: 0


Query= GCA_002072555_Dairy_5

Length=30

RID: S0BYU08M016


***** No hits found *****



Lambda      K        H
    1.33    0.621     1.12 

Gapped
Lambda      K        H
    1.28    0.460    0.850 

Effective search space used: 0


Query= DK96_S8_L001_DTU_8_DK96_S8_L004_DTU_8

Length=30

RID: S0BYU08M016


***** No hits found *****



Lambda      K        H
    1.33    0.621     1.12 

Gapped
Lambda      K        H
    1.28    0.460    0.850 

Effective search space used: 0


Query= DK0314_DTU_1_DK0322_DTU_1

Length=40

RID: S0BYU08M016


***** No hits found *****



Lambda      K        H
    1.33    0.621     1.12 

Gapped
Lambda      K        H
    1.28    0.460    0.850 

Effective search space used: 0


Query= DK96_S8_L001_DTU_9_DK96_S8_L004_DTU_9

Length=30

RID: S0BYU08M016


***** No hits found *****



Lambda      K        H
    1.33    0.621     1.12 

Gapped
Lambda      K        H
    1.28    0.460    0.850 

Effective search space used: 0


Query= DK0314_DTU_2_DK0322_DTU_2

Length=41

RID: S0BYU08M016


***** No hits found *****



Lambda      K        H
    1.33    0.621     1.12 

Gapped
Lambda      K        H
    1.28    0.460    0.850 

Effective search space used: 0


Query= GCA_000686465_Dairy_2_GCA_000686505_Dairy_3_GCA_002092295_Dairy_3

Length=30

RID: S0BYU08M016


***** No hits found *****



Lambda      K        H
    1.33    0.621     1.12 

Gapped
Lambda      K        H
    1.28    0.460    0.850 

Effective search space used: 0


Query= DK96_S8_L002_DTU_5_DK96_S8_L003_DTU_5

Length=30

RID: S0BYU08M016


***** No hits found *****



Lambda      K        H
    1.33    0.621     1.12 

Gapped
Lambda      K        H
    1.28    0.460    0.850 

Effective search space used: 0


Query= GCA_00207257_Dairy_2

Length=39

RID: S0BYU08M016


***** No hits found *****



Lambda      K        H
    1.33    0.621     1.12 

Gapped
Lambda      K        H
    1.28    0.460    0.850 

Effective search space used: 0


Query= GCA_008033175_Plant_1_GCA_012396745_Plant_1_GCA_018257095_Plant_2_DK
0099_DTU_1_DK0181_DTU_1_DK0182_DTU_1_DK0228_DTU_1_DK0313_DTU_1_DK032
3_DTU_4_DK0339_DTU_4_DK96_S8_L002_DTU_10_DK96_S8_L004_DTU_10_DK102_S
9_L002_DTU_1_DK102_S9_L003_DTU_1_GCA_000686465_Dairy_7_GCA_002072505
_Dairy_1_GCA_002072555_Dairy_9_GCA_00209255_Dairy_4_GCA_003346375_Da
iry_1

Length=51

RID: S0BYU08M016


***** No hits found *****



Lambda      K        H
    1.33    0.621     1.12 

Gapped
Lambda      K        H
    1.28    0.460    0.850 

Effective search space used: 0


Query= DK96_S8_L002_DTU_7_DK96_S8_L003_DTU_7

Length=30

RID: S0BYU08M016


***** No hits found *****



Lambda      K        H
    1.33    0.621     1.12 

Gapped
Lambda      K        H
    1.28    0.460    0.850 

Effective search space used: 0


Query= GCA_00207257_Dairy_11

Length=39

RID: S0BYU08M016


***** No hits found *****



Lambda      K        H
    1.33    0.621     1.12 

Gapped
Lambda      K        H
    1.28    0.460    0.850 

Effective search space used: 0


Query= DK96_S8_L001_DTU_1_DK96_S8_L004_DTU_1

Length=30

RID: S0BYU08M016


***** No hits found *****



Lambda      K        H
    1.33    0.621     1.12 

Gapped
Lambda      K        H
    1.28    0.460    0.850 

Effective search space used: 0


Query= GCA_002072505_Dairy_7_GCA_00207257_Dairy_17_GCA_002092035_Dairy_5_GC
A_002092075_Dairy_5_GCA_002092165_Dairy_5_GCA_002092375_Dairy_5_GCA_
002092645_Dairy_6

Length=30

RID: S0BYU08M016


***** No hits found *****



Lambda      K        H
    1.33    0.621     1.12 

Gapped
Lambda      K        H
    1.28    0.460    0.850 

Effective search space used: 0


Query= DK96_S8_L001_DTU_3_DK96_S8_L004_DTU_3

Length=30

RID: S0BYU08M016


***** No hits found *****



Lambda      K        H
    1.33    0.621     1.12 

Gapped
Lambda      K        H
    1.28    0.460    0.850 

Effective search space used: 0


Query= GCA_002072585_Dairy_3_GCA_002092235_Dairy_3_GCA_002092535_Dairy_4

Length=30

RID: S0BYU08M016


***** No hits found *****



Lambda      K        H
    1.33    0.621     1.12 

Gapped
Lambda      K        H
    1.28    0.460    0.850 

Effective search space used: 0


Query= GCA_00207257_Dairy_1

Length=52

RID: S0BYU08M016


***** No hits found *****



Lambda      K        H
    1.33    0.621     1.12 

Gapped
Lambda      K        H
    1.28    0.460    0.850 

Effective search space used: 0


Query= DK0227_DTU_1

Length=55

RID: S0BYU08M016


***** No hits found *****



Lambda      K        H
    1.33    0.621     1.12 

Gapped
Lambda      K        H
    1.28    0.460    0.850 

Effective search space used: 0


Query= GCA_018257095_Plant_1

Length=40

RID: S0BYU08M016


***** No hits found *****



Lambda      K        H
    1.33    0.621     1.12 

Gapped
Lambda      K        H
    1.28    0.460    0.850 

Effective search space used: 0


Query= GCA_002072585_Dairy_5_GCA_002092235_Dairy_5_GCA_002092535_Dairy_6

Length=30

RID: S0BYU08M016


***** No hits found *****



Lambda      K        H
    1.33    0.621     1.12 

Gapped
Lambda      K        H
    1.28    0.460    0.850 

Effective search space used: 0


Query= GCA_002072495_Dairy_3_GCA_002072555_Dairy_3_GCA_002072555_Dairy_6

Length=30

RID: S0BYU08M016


***** No hits found *****



Lambda      K        H
    1.33    0.621     1.12 

Gapped
Lambda      K        H
    1.28    0.460    0.850 

Effective search space used: 0


Query= GCA_002092255_Dairy_3_GCA_00209235_Dairy_3_GCA_00209255_Dairy_3_GCA_
002092635_Dairy_4

Length=31

RID: S0BYU08M016


***** No hits found *****



Lambda      K        H
    1.33    0.621     1.12 

Gapped
Lambda      K        H
    1.28    0.460    0.850 

Effective search space used: 0


Query= GCA_901830415_Other_4

Length=30

RID: S0BYU08M016


***** No hits found *****



Lambda      K        H
    1.33    0.621     1.12 

Gapped
Lambda      K        H
    1.28    0.460    0.850 

Effective search space used: 0


Query= GCA_901830415_Other_2

Length=30

RID: S0BYU08M016


***** No hits found *****



Lambda      K        H
    1.33    0.621     1.12 

Gapped
Lambda      K        H
    1.28    0.460    0.850 

Effective search space used: 0


Query= GCA_00207257_Dairy_10

Length=30

RID: S0BYU08M016


***** No hits found *****



Lambda      K        H
    1.33    0.621     1.12 

Gapped
Lambda      K        H
    1.28    0.460    0.850 

Effective search space used: 0


Query= GCA_00207257_Dairy_18

Length=50

RID: S0BYU08M016


***** No hits found *****



Lambda      K        H
    1.33    0.621     1.12 

Gapped
Lambda      K        H
    1.28    0.460    0.850 

Effective search space used: 0


Query= GCA_002072585_Dairy_4_GCA_002092235_Dairy_4_GCA_002092535_Dairy_5

Length=30

RID: S0BYU08M016


***** No hits found *****



Lambda      K        H
    1.33    0.621     1.12 

Gapped
Lambda      K        H
    1.28    0.460    0.850 

Effective search space used: 0


Query= GCA_000686465_Dairy_4_GCA_000686505_Dairy_5_GCA_002072505_Dairy_3_GC
A_00207257_Dairy_12_GCA_00207257_Dairy_14_GCA_002092035_Dairy_2_GCA_
002092075_Dairy_2_GCA_002092165_Dairy_2_GCA_002092375_Dairy_2_GCA_00
2092645_Dairy_2

Length=30

RID: S0BYU08M016


***** No hits found *****



Lambda      K        H
    1.33    0.621     1.12 

Gapped
Lambda      K        H
    1.28    0.460    0.850 

Effective search space used: 0


Query= GCA_002092255_Dairy_1_GCA_00209235_Dairy_1_GCA_00209255_Dairy_1_GCA_
002092635_Dairy_1_GCA_002092635_Dairy_2

Length=31

RID: S0BYU08M016


***** No hits found *****



Lambda      K        H
    1.33    0.621     1.12 

Gapped
Lambda      K        H
    1.28    0.460    0.850 

Effective search space used: 0


Query= DK96_S8_L002_DTU_2_DK96_S8_L003_DTU_2

Length=30

RID: S0BYU08M016


***** No hits found *****



Lambda      K        H
    1.33    0.621     1.12 

Gapped
Lambda      K        H
    1.28    0.460    0.850 

Effective search space used: 0


Query= DK0181_DTU_4_DK0182_DTU_2_DK0313_DTU_4_DK102_S9_L004_DTU_1

Length=26

RID: S0BYU08M016


***** No hits found *****



Lambda      K        H
    1.33    0.621     1.12 

Gapped
Lambda      K        H
    1.28    0.460    0.850 

Effective search space used: 0


Query= DK0099_DTU_3_DK0180_DTU_2_DK0181_DTU_5_DK0182_DTU_3_DK102_S9_L002_DT
U_3_DK102_S9_L004_DTU_3

Length=102

RID: S0BYU08M016


***** No hits found *****



Lambda      K        H
    1.33    0.621     1.12 

Gapped
Lambda      K        H
    1.28    0.460    0.850 

Effective search space used: 0


Query= DK96_S8_L001_DTU_2_DK96_S8_L004_DTU_2

Length=30

RID: S0BYU08M016


***** No hits found *****



Lambda      K        H
    1.33    0.621     1.12 

Gapped
Lambda      K        H
    1.28    0.460    0.850 

Effective search space used: 0


Query= GCA_000686465_Dairy_6_GCA_000686505_Dairy_7_GCA_002072505_Dairy_6_GC
A_00207257_Dairy_16_GCA_002092035_Dairy_4_GCA_002092075_Dairy_4_GCA_
002092165_Dairy_4_GCA_002092295_Dairy_6_GCA_002092375_Dairy_4_GCA_00
2092645_Dairy_5

Length=30

RID: S0BYU08M016


***** No hits found *****



Lambda      K        H
    1.33    0.621     1.12 

Gapped
Lambda      K        H
    1.28    0.460    0.850 

Effective search space used: 0


Query= GCA_00207257_Dairy_7

Length=30

RID: S0BYU08M016


***** No hits found *****



Lambda      K        H
    1.33    0.621     1.12 

Gapped
Lambda      K        H
    1.28    0.460    0.850 

Effective search space used: 0


Query= DK96_S8_L002_DTU_8_DK96_S8_L003_DTU_8

Length=30

RID: S0BYU08M016


***** No hits found *****



Lambda      K        H
    1.33    0.621     1.12 

Gapped
Lambda      K        H
    1.28    0.460    0.850 

Effective search space used: 0


  Database: Nucleotide collection (nt)
    Posted date:  Oct 25, 2021 06:49 PM
  Number of letters in database: 567,103,167,726
  Number of sequences in database:  75,232,634



Matrix: blastn matrix 1 -2
Gap Penalties: Existence: 0, Extension: 2.5
