>GCA_000686465
['36792', '37223']
['15001', '15103']
>GCA_000686505_
['36793', '37290']
>GCA_002072475_
['9622', '9987']
>GCA_002072495_
['18163', '18528']
>GCA_002072505_
['12314', '12416']
['1', '432']
>GCA_002072555_
['39609', '39974']
['115', '348']
['4908', '5010']
>GCA_002072565
>GCA_002072575_
['58369', '58520']
['19821', '19967']
['76', '653']
['6978', '7096']
['27', '458']
['1', '130']
>GCA_002072585_
['30239', '30670']
>GCA_002092035_
['37751', '38116']
>GCA_002092075_
['36931', '37296']
>GCA_002092165_
['37751', '38116']
>GCA_002092235
['36878', '37309']
>GCA_002092255_
['15670', '15902']
>GCA_002092295_
['36941', '37372']
>GCA_002092355_
['15670', '15902']
>GCA_002092375_
['37751', '38116']
>GCA_002092535_
['37182', '37679']
>GCA_002092555_
['15670', '15902']
['15067', '15169']
>GCA_002092635_
['15660', '15958']
['1', '104']
>GCA_002092645
['36889', '37320']
>GCA_003346375_
['65355', '65457']
