Sequence(s)	CRISPR array(s)	Nb CRISPRs	Evidence-levels	Cas cluster(s)	Nb Cas	Cas Types/Subtypes
JDVA01000001		0	Nb_arrays_evidence-level_1=0,Nb_arrays_evidence-level_2=0,Nb_arrays_evidence-level_3=0,Nb_arrays_evidence-level_4=0		0
JDVA01000002		0	Nb_arrays_evidence-level_1=0,Nb_arrays_evidence-level_2=0,Nb_arrays_evidence-level_3=0,Nb_arrays_evidence-level_4=0		0
JDVA01000003		0	Nb_arrays_evidence-level_1=0,Nb_arrays_evidence-level_2=0,Nb_arrays_evidence-level_3=0,Nb_arrays_evidence-level_4=0		0
JDVA01000004		0	Nb_arrays_evidence-level_1=0,Nb_arrays_evidence-level_2=0,Nb_arrays_evidence-level_3=0,Nb_arrays_evidence-level_4=0		0
JDVA01000005		0	Nb_arrays_evidence-level_1=0,Nb_arrays_evidence-level_2=0,Nb_arrays_evidence-level_3=0,Nb_arrays_evidence-level_4=0		0
JDVA01000006		0	Nb_arrays_evidence-level_1=0,Nb_arrays_evidence-level_2=0,Nb_arrays_evidence-level_3=0,Nb_arrays_evidence-level_4=0		0
JDVA01000007		0	Nb_arrays_evidence-level_1=0,Nb_arrays_evidence-level_2=0,Nb_arrays_evidence-level_3=0,Nb_arrays_evidence-level_4=0		0
JDVA01000008		0	Nb_arrays_evidence-level_1=0,Nb_arrays_evidence-level_2=0,Nb_arrays_evidence-level_3=0,Nb_arrays_evidence-level_4=0		0
JDVA01000009		0	Nb_arrays_evidence-level_1=0,Nb_arrays_evidence-level_2=0,Nb_arrays_evidence-level_3=0,Nb_arrays_evidence-level_4=0		0
JDVA01000010		0	Nb_arrays_evidence-level_1=0,Nb_arrays_evidence-level_2=0,Nb_arrays_evidence-level_3=0,Nb_arrays_evidence-level_4=0		0
JDVA01000011		0	Nb_arrays_evidence-level_1=0,Nb_arrays_evidence-level_2=0,Nb_arrays_evidence-level_3=0,Nb_arrays_evidence-level_4=0		0
JDVA01000012		0	Nb_arrays_evidence-level_1=0,Nb_arrays_evidence-level_2=0,Nb_arrays_evidence-level_3=0,Nb_arrays_evidence-level_4=0		0
JDVA01000013		0	Nb_arrays_evidence-level_1=0,Nb_arrays_evidence-level_2=0,Nb_arrays_evidence-level_3=0,Nb_arrays_evidence-level_4=0		0
JDVA01000014		0	Nb_arrays_evidence-level_1=0,Nb_arrays_evidence-level_2=0,Nb_arrays_evidence-level_3=0,Nb_arrays_evidence-level_4=0		0
JDVA01000015		0	Nb_arrays_evidence-level_1=0,Nb_arrays_evidence-level_2=0,Nb_arrays_evidence-level_3=0,Nb_arrays_evidence-level_4=0		0
JDVA01000016		0	Nb_arrays_evidence-level_1=0,Nb_arrays_evidence-level_2=0,Nb_arrays_evidence-level_3=0,Nb_arrays_evidence-level_4=0		0
JDVA01000017		0	Nb_arrays_evidence-level_1=0,Nb_arrays_evidence-level_2=0,Nb_arrays_evidence-level_3=0,Nb_arrays_evidence-level_4=0		0
JDVA01000018		0	Nb_arrays_evidence-level_1=0,Nb_arrays_evidence-level_2=0,Nb_arrays_evidence-level_3=0,Nb_arrays_evidence-level_4=0		0
JDVA01000019		0	Nb_arrays_evidence-level_1=0,Nb_arrays_evidence-level_2=0,Nb_arrays_evidence-level_3=0,Nb_arrays_evidence-level_4=0		0
JDVA01000020		0	Nb_arrays_evidence-level_1=0,Nb_arrays_evidence-level_2=0,Nb_arrays_evidence-level_3=0,Nb_arrays_evidence-level_4=0		0
JDVA01000021		0	Nb_arrays_evidence-level_1=0,Nb_arrays_evidence-level_2=0,Nb_arrays_evidence-level_3=0,Nb_arrays_evidence-level_4=0		0
JDVA01000022		0	Nb_arrays_evidence-level_1=0,Nb_arrays_evidence-level_2=0,Nb_arrays_evidence-level_3=0,Nb_arrays_evidence-level_4=0		0
JDVA01000023	JDVA01000023_1[36793;37290] (evidence-level=4),	1	Nb_arrays_evidence-level_1=0,Nb_arrays_evidence-level_2=0,Nb_arrays_evidence-level_3=0,Nb_arrays_evidence-level_4=1		0
JDVA01000024		0	Nb_arrays_evidence-level_1=0,Nb_arrays_evidence-level_2=0,Nb_arrays_evidence-level_3=0,Nb_arrays_evidence-level_4=0		0
JDVA01000025		0	Nb_arrays_evidence-level_1=0,Nb_arrays_evidence-level_2=0,Nb_arrays_evidence-level_3=0,Nb_arrays_evidence-level_4=0		0
JDVA01000026		0	Nb_arrays_evidence-level_1=0,Nb_arrays_evidence-level_2=0,Nb_arrays_evidence-level_3=0,Nb_arrays_evidence-level_4=0		0
JDVA01000027		0	Nb_arrays_evidence-level_1=0,Nb_arrays_evidence-level_2=0,Nb_arrays_evidence-level_3=0,Nb_arrays_evidence-level_4=0		0
JDVA01000028		0	Nb_arrays_evidence-level_1=0,Nb_arrays_evidence-level_2=0,Nb_arrays_evidence-level_3=0,Nb_arrays_evidence-level_4=0		0
JDVA01000029		0	Nb_arrays_evidence-level_1=0,Nb_arrays_evidence-level_2=0,Nb_arrays_evidence-level_3=0,Nb_arrays_evidence-level_4=0		0
JDVA01000030		0	Nb_arrays_evidence-level_1=0,Nb_arrays_evidence-level_2=0,Nb_arrays_evidence-level_3=0,Nb_arrays_evidence-level_4=0		0
JDVA01000031		0	Nb_arrays_evidence-level_1=0,Nb_arrays_evidence-level_2=0,Nb_arrays_evidence-level_3=0,Nb_arrays_evidence-level_4=0		0
JDVA01000032		0	Nb_arrays_evidence-level_1=0,Nb_arrays_evidence-level_2=0,Nb_arrays_evidence-level_3=0,Nb_arrays_evidence-level_4=0		0
JDVA01000033		0	Nb_arrays_evidence-level_1=0,Nb_arrays_evidence-level_2=0,Nb_arrays_evidence-level_3=0,Nb_arrays_evidence-level_4=0		0
JDVA01000034		0	Nb_arrays_evidence-level_1=0,Nb_arrays_evidence-level_2=0,Nb_arrays_evidence-level_3=0,Nb_arrays_evidence-level_4=0		0
JDVA01000035		0	Nb_arrays_evidence-level_1=0,Nb_arrays_evidence-level_2=0,Nb_arrays_evidence-level_3=0,Nb_arrays_evidence-level_4=0		0
JDVA01000036		0	Nb_arrays_evidence-level_1=0,Nb_arrays_evidence-level_2=0,Nb_arrays_evidence-level_3=0,Nb_arrays_evidence-level_4=0		0
JDVA01000037		0	Nb_arrays_evidence-level_1=0,Nb_arrays_evidence-level_2=0,Nb_arrays_evidence-level_3=0,Nb_arrays_evidence-level_4=0		0
JDVA01000038		0	Nb_arrays_evidence-level_1=0,Nb_arrays_evidence-level_2=0,Nb_arrays_evidence-level_3=0,Nb_arrays_evidence-level_4=0		0
JDVA01000039		0	Nb_arrays_evidence-level_1=0,Nb_arrays_evidence-level_2=0,Nb_arrays_evidence-level_3=0,Nb_arrays_evidence-level_4=0		0
JDVA01000040		0	Nb_arrays_evidence-level_1=0,Nb_arrays_evidence-level_2=0,Nb_arrays_evidence-level_3=0,Nb_arrays_evidence-level_4=0		0
JDVA01000041		0	Nb_arrays_evidence-level_1=0,Nb_arrays_evidence-level_2=0,Nb_arrays_evidence-level_3=0,Nb_arrays_evidence-level_4=0		0
JDVA01000042		0	Nb_arrays_evidence-level_1=0,Nb_arrays_evidence-level_2=0,Nb_arrays_evidence-level_3=0,Nb_arrays_evidence-level_4=0		0
JDVA01000043		0	Nb_arrays_evidence-level_1=0,Nb_arrays_evidence-level_2=0,Nb_arrays_evidence-level_3=0,Nb_arrays_evidence-level_4=0		0
JDVA01000044		0	Nb_arrays_evidence-level_1=0,Nb_arrays_evidence-level_2=0,Nb_arrays_evidence-level_3=0,Nb_arrays_evidence-level_4=0		0
JDVA01000045		0	Nb_arrays_evidence-level_1=0,Nb_arrays_evidence-level_2=0,Nb_arrays_evidence-level_3=0,Nb_arrays_evidence-level_4=0		0
JDVA01000046		0	Nb_arrays_evidence-level_1=0,Nb_arrays_evidence-level_2=0,Nb_arrays_evidence-level_3=0,Nb_arrays_evidence-level_4=0		0
JDVA01000047		0	Nb_arrays_evidence-level_1=0,Nb_arrays_evidence-level_2=0,Nb_arrays_evidence-level_3=0,Nb_arrays_evidence-level_4=0		0
JDVA01000048		0	Nb_arrays_evidence-level_1=0,Nb_arrays_evidence-level_2=0,Nb_arrays_evidence-level_3=0,Nb_arrays_evidence-level_4=0		0
JDVA01000049		0	Nb_arrays_evidence-level_1=0,Nb_arrays_evidence-level_2=0,Nb_arrays_evidence-level_3=0,Nb_arrays_evidence-level_4=0		0
JDVA01000050		0	Nb_arrays_evidence-level_1=0,Nb_arrays_evidence-level_2=0,Nb_arrays_evidence-level_3=0,Nb_arrays_evidence-level_4=0		0
JDVA01000051		0	Nb_arrays_evidence-level_1=0,Nb_arrays_evidence-level_2=0,Nb_arrays_evidence-level_3=0,Nb_arrays_evidence-level_4=0		0
JDVA01000052		0	Nb_arrays_evidence-level_1=0,Nb_arrays_evidence-level_2=0,Nb_arrays_evidence-level_3=0,Nb_arrays_evidence-level_4=0		0
JDVA01000053		0	Nb_arrays_evidence-level_1=0,Nb_arrays_evidence-level_2=0,Nb_arrays_evidence-level_3=0,Nb_arrays_evidence-level_4=0		0
JDVA01000054		0	Nb_arrays_evidence-level_1=0,Nb_arrays_evidence-level_2=0,Nb_arrays_evidence-level_3=0,Nb_arrays_evidence-level_4=0		0
JDVA01000055		0	Nb_arrays_evidence-level_1=0,Nb_arrays_evidence-level_2=0,Nb_arrays_evidence-level_3=0,Nb_arrays_evidence-level_4=0		0
JDVA01000056		0	Nb_arrays_evidence-level_1=0,Nb_arrays_evidence-level_2=0,Nb_arrays_evidence-level_3=0,Nb_arrays_evidence-level_4=0		0
JDVA01000057		0	Nb_arrays_evidence-level_1=0,Nb_arrays_evidence-level_2=0,Nb_arrays_evidence-level_3=0,Nb_arrays_evidence-level_4=0		0
JDVA01000058		0	Nb_arrays_evidence-level_1=0,Nb_arrays_evidence-level_2=0,Nb_arrays_evidence-level_3=0,Nb_arrays_evidence-level_4=0		0
JDVA01000059		0	Nb_arrays_evidence-level_1=0,Nb_arrays_evidence-level_2=0,Nb_arrays_evidence-level_3=0,Nb_arrays_evidence-level_4=0		0
JDVA01000060		0	Nb_arrays_evidence-level_1=0,Nb_arrays_evidence-level_2=0,Nb_arrays_evidence-level_3=0,Nb_arrays_evidence-level_4=0		0
JDVA01000061		0	Nb_arrays_evidence-level_1=0,Nb_arrays_evidence-level_2=0,Nb_arrays_evidence-level_3=0,Nb_arrays_evidence-level_4=0		0
JDVA01000062		0	Nb_arrays_evidence-level_1=0,Nb_arrays_evidence-level_2=0,Nb_arrays_evidence-level_3=0,Nb_arrays_evidence-level_4=0		0
JDVA01000063		0	Nb_arrays_evidence-level_1=0,Nb_arrays_evidence-level_2=0,Nb_arrays_evidence-level_3=0,Nb_arrays_evidence-level_4=0		0
JDVA01000064		0	Nb_arrays_evidence-level_1=0,Nb_arrays_evidence-level_2=0,Nb_arrays_evidence-level_3=0,Nb_arrays_evidence-level_4=0		0
JDVA01000065		0	Nb_arrays_evidence-level_1=0,Nb_arrays_evidence-level_2=0,Nb_arrays_evidence-level_3=0,Nb_arrays_evidence-level_4=0		0
JDVA01000066		0	Nb_arrays_evidence-level_1=0,Nb_arrays_evidence-level_2=0,Nb_arrays_evidence-level_3=0,Nb_arrays_evidence-level_4=0		0
JDVA01000067		0	Nb_arrays_evidence-level_1=0,Nb_arrays_evidence-level_2=0,Nb_arrays_evidence-level_3=0,Nb_arrays_evidence-level_4=0		0
JDVA01000068		0	Nb_arrays_evidence-level_1=0,Nb_arrays_evidence-level_2=0,Nb_arrays_evidence-level_3=0,Nb_arrays_evidence-level_4=0		0
JDVA01000069		0	Nb_arrays_evidence-level_1=0,Nb_arrays_evidence-level_2=0,Nb_arrays_evidence-level_3=0,Nb_arrays_evidence-level_4=0		0
JDVA01000070		0	Nb_arrays_evidence-level_1=0,Nb_arrays_evidence-level_2=0,Nb_arrays_evidence-level_3=0,Nb_arrays_evidence-level_4=0		0
JDVA01000071		0	Nb_arrays_evidence-level_1=0,Nb_arrays_evidence-level_2=0,Nb_arrays_evidence-level_3=0,Nb_arrays_evidence-level_4=0		0
JDVA01000072		0	Nb_arrays_evidence-level_1=0,Nb_arrays_evidence-level_2=0,Nb_arrays_evidence-level_3=0,Nb_arrays_evidence-level_4=0		0
JDVA01000073		0	Nb_arrays_evidence-level_1=0,Nb_arrays_evidence-level_2=0,Nb_arrays_evidence-level_3=0,Nb_arrays_evidence-level_4=0		0
JDVA01000074		0	Nb_arrays_evidence-level_1=0,Nb_arrays_evidence-level_2=0,Nb_arrays_evidence-level_3=0,Nb_arrays_evidence-level_4=0		0
JDVA01000075		0	Nb_arrays_evidence-level_1=0,Nb_arrays_evidence-level_2=0,Nb_arrays_evidence-level_3=0,Nb_arrays_evidence-level_4=0		0
JDVA01000076		0	Nb_arrays_evidence-level_1=0,Nb_arrays_evidence-level_2=0,Nb_arrays_evidence-level_3=0,Nb_arrays_evidence-level_4=0		0
JDVA01000077		0	Nb_arrays_evidence-level_1=0,Nb_arrays_evidence-level_2=0,Nb_arrays_evidence-level_3=0,Nb_arrays_evidence-level_4=0		0
JDVA01000078		0	Nb_arrays_evidence-level_1=0,Nb_arrays_evidence-level_2=0,Nb_arrays_evidence-level_3=0,Nb_arrays_evidence-level_4=0		0
JDVA01000079		0	Nb_arrays_evidence-level_1=0,Nb_arrays_evidence-level_2=0,Nb_arrays_evidence-level_3=0,Nb_arrays_evidence-level_4=0		0
JDVA01000080		0	Nb_arrays_evidence-level_1=0,Nb_arrays_evidence-level_2=0,Nb_arrays_evidence-level_3=0,Nb_arrays_evidence-level_4=0		0
JDVA01000081		0	Nb_arrays_evidence-level_1=0,Nb_arrays_evidence-level_2=0,Nb_arrays_evidence-level_3=0,Nb_arrays_evidence-level_4=0		0
JDVA01000082		0	Nb_arrays_evidence-level_1=0,Nb_arrays_evidence-level_2=0,Nb_arrays_evidence-level_3=0,Nb_arrays_evidence-level_4=0		0
JDVA01000083		0	Nb_arrays_evidence-level_1=0,Nb_arrays_evidence-level_2=0,Nb_arrays_evidence-level_3=0,Nb_arrays_evidence-level_4=0		0
JDVA01000084		0	Nb_arrays_evidence-level_1=0,Nb_arrays_evidence-level_2=0,Nb_arrays_evidence-level_3=0,Nb_arrays_evidence-level_4=0		0
JDVA01000085		0	Nb_arrays_evidence-level_1=0,Nb_arrays_evidence-level_2=0,Nb_arrays_evidence-level_3=0,Nb_arrays_evidence-level_4=0		0
JDVA01000086		0	Nb_arrays_evidence-level_1=0,Nb_arrays_evidence-level_2=0,Nb_arrays_evidence-level_3=0,Nb_arrays_evidence-level_4=0		0
JDVA01000087		0	Nb_arrays_evidence-level_1=0,Nb_arrays_evidence-level_2=0,Nb_arrays_evidence-level_3=0,Nb_arrays_evidence-level_4=0		0
JDVA01000088		0	Nb_arrays_evidence-level_1=0,Nb_arrays_evidence-level_2=0,Nb_arrays_evidence-level_3=0,Nb_arrays_evidence-level_4=0		0
JDVA01000089		0	Nb_arrays_evidence-level_1=0,Nb_arrays_evidence-level_2=0,Nb_arrays_evidence-level_3=0,Nb_arrays_evidence-level_4=0		0
JDVA01000090		0	Nb_arrays_evidence-level_1=0,Nb_arrays_evidence-level_2=0,Nb_arrays_evidence-level_3=0,Nb_arrays_evidence-level_4=0		0
JDVA01000091		0	Nb_arrays_evidence-level_1=0,Nb_arrays_evidence-level_2=0,Nb_arrays_evidence-level_3=0,Nb_arrays_evidence-level_4=0		0
